Beer
…
We created a table and corresponding bar charts to display the median ABV and IBU values for each state

library(dplyr)
fullbeer$State = as.factor(fullbeer$State)
medians = fullbeer %>%
  group_by(State) %>%
  summarise(medianABV = median(ABV), medianIBU = median(IBU))

medians$medianABV<-round(medians$medianABV*100,digits=1)
medians$medianIBU<-round(medians$medianIBU,digits=1)

medians

## # A tibble: 51 × 3
##    State medianABV medianIBU
##    <fct>     <dbl>     <dbl>
##  1 " AK"       5.6      33.8
##  2 " AL"       6        39.5
##  3 " AR"       5.2      36.3
##  4 " AZ"       5.7      22.2
##  5 " CA"       5.8      40  
##  6 " CO"       6        36.3
##  7 " CT"       6        36.3
##  8 " DC"       6.2      28.1
##  9 " DE"       6        59.8
## 10 " FL"       5.6      35.6
## # … with 41 more rows
…
